org,COVID-19,Vaccination,Mental Health,Nutrition and Well-being,Community Healthcare,Health Research,Chronic Diseases,Medical Trials
AstraZeneca,235,46,0,216,181,322,680,14
Biogen,49,4,10,384,191,124,268,8
GSK,398,195,0,319,128,655,391,24
JNJNews,307,314,25,364,203,526,165,24
Pfizer,396,329,19,436,193,665,614,85